%FSLAX42Y42*%
%MOMM*%
G71*
G01*
G75*
G04 Layer_Physical_Order=1*
G04 Layer_Color=255*
%ADD10R,1.10X2.60*%
%ADD11R,2.60X1.10*%
%ADD12O,0.60X2.20*%
%ADD13O,2.20X0.60*%
%ADD14C,0.50*%
%ADD15C,0.80*%
%ADD16C,0.25*%
%ADD17R,1.50X1.50*%
%ADD18C,1.50*%
%ADD19C,4.76*%
%ADD20R,1.69X1.69*%
%ADD21C,1.69*%
%ADD22R,1.50X1.50*%
%ADD23C,2.30*%
%ADD24C,1.20*%
%ADD25C,6.00*%
%ADD26C,0.50*%
G36*
X17604Y7796D02*
X14876D01*
X14875Y7798D01*
X14911Y7834D01*
X14924Y7853D01*
X14928Y7874D01*
X14928Y7874D01*
X14928Y7874D01*
Y7874D01*
Y7962D01*
X14947Y7977D01*
X14963Y7999D01*
X14974Y8024D01*
X14978Y8052D01*
X14974Y8079D01*
X14963Y8105D01*
X14947Y8127D01*
X14925Y8144D01*
X14899Y8154D01*
X14872Y8158D01*
X14844Y8154D01*
X14819Y8144D01*
X14797Y8127D01*
X14780Y8105D01*
X14769Y8079D01*
X14766Y8052D01*
X14769Y8024D01*
X14780Y7999D01*
X14797Y7977D01*
X14816Y7962D01*
Y7897D01*
X14798Y7879D01*
X14617D01*
X14616Y7882D01*
X14657Y7923D01*
X14670Y7941D01*
X14674Y7962D01*
X14693Y7977D01*
X14709Y7999D01*
X14720Y8024D01*
X14724Y8052D01*
X14720Y8079D01*
X14709Y8105D01*
X14693Y8127D01*
X14671Y8144D01*
X14645Y8154D01*
X14618Y8158D01*
X14590Y8154D01*
X14565Y8144D01*
X14543Y8127D01*
X14526Y8105D01*
X14515Y8079D01*
X14512Y8052D01*
X14515Y8024D01*
X14526Y7999D01*
X14543Y7977D01*
X14547Y7974D01*
X14547Y7971D01*
X14544Y7968D01*
X14431D01*
X14430Y7971D01*
X14439Y7977D01*
X14455Y7999D01*
X14466Y8024D01*
X14470Y8052D01*
X14466Y8079D01*
X14455Y8105D01*
X14439Y8127D01*
X14417Y8144D01*
X14391Y8154D01*
X14364Y8158D01*
X14336Y8154D01*
X14311Y8144D01*
X14289Y8127D01*
X14272Y8105D01*
X14261Y8079D01*
X14258Y8052D01*
X14261Y8024D01*
X14272Y7999D01*
X14289Y7977D01*
X14297Y7971D01*
X14296Y7968D01*
X14177D01*
X14176Y7971D01*
X14185Y7977D01*
X14201Y7999D01*
X14212Y8024D01*
X14216Y8052D01*
X14212Y8079D01*
X14201Y8105D01*
X14185Y8127D01*
X14163Y8144D01*
X14137Y8154D01*
X14110Y8158D01*
X14082Y8154D01*
X14057Y8144D01*
X14035Y8127D01*
X14018Y8105D01*
X14007Y8079D01*
X14004Y8052D01*
X14007Y8024D01*
X14018Y7999D01*
X14035Y7977D01*
X14043Y7971D01*
X14042Y7968D01*
X13923D01*
X13922Y7971D01*
X13931Y7977D01*
X13947Y7999D01*
X13958Y8024D01*
X13962Y8052D01*
X13958Y8079D01*
X13947Y8105D01*
X13931Y8127D01*
X13909Y8144D01*
X13883Y8154D01*
X13856Y8158D01*
X13828Y8154D01*
X13803Y8144D01*
X13781Y8127D01*
X13764Y8105D01*
X13753Y8079D01*
X13750Y8052D01*
X13753Y8024D01*
X13764Y7999D01*
X13781Y7977D01*
X13789Y7971D01*
X13788Y7968D01*
X13669D01*
X13668Y7971D01*
X13677Y7977D01*
X13693Y7999D01*
X13704Y8024D01*
X13708Y8052D01*
X13704Y8079D01*
X13693Y8105D01*
X13677Y8127D01*
X13655Y8144D01*
X13629Y8154D01*
X13602Y8158D01*
X13574Y8154D01*
X13549Y8144D01*
X13527Y8127D01*
X13510Y8105D01*
X13499Y8079D01*
X13496Y8052D01*
X13499Y8024D01*
X13510Y7999D01*
X13527Y7977D01*
X13535Y7971D01*
X13534Y7968D01*
X13415D01*
X13414Y7971D01*
X13423Y7977D01*
X13439Y7999D01*
X13450Y8024D01*
X13454Y8052D01*
X13450Y8079D01*
X13439Y8105D01*
X13423Y8127D01*
X13401Y8144D01*
X13375Y8154D01*
X13348Y8158D01*
X13320Y8154D01*
X13295Y8144D01*
X13273Y8127D01*
X13256Y8105D01*
X13245Y8079D01*
X13242Y8052D01*
X13245Y8024D01*
X13256Y7999D01*
X13273Y7977D01*
X13281Y7971D01*
X13280Y7968D01*
X13161D01*
X13160Y7971D01*
X13169Y7977D01*
X13185Y7999D01*
X13196Y8024D01*
X13200Y8052D01*
X13196Y8079D01*
X13185Y8105D01*
X13169Y8127D01*
X13147Y8144D01*
X13121Y8154D01*
X13094Y8158D01*
X13066Y8154D01*
X13041Y8144D01*
X13019Y8127D01*
X13002Y8105D01*
X12991Y8079D01*
X12988Y8052D01*
X12991Y8024D01*
X13002Y7999D01*
X13019Y7977D01*
X13027Y7971D01*
X13026Y7968D01*
X12907D01*
X12906Y7971D01*
X12915Y7977D01*
X12931Y7999D01*
X12942Y8024D01*
X12946Y8052D01*
X12942Y8079D01*
X12931Y8105D01*
X12915Y8127D01*
X12893Y8144D01*
X12867Y8154D01*
X12840Y8158D01*
X12812Y8154D01*
X12787Y8144D01*
X12765Y8127D01*
X12748Y8105D01*
X12737Y8079D01*
X12734Y8052D01*
X12737Y8024D01*
X12748Y7999D01*
X12765Y7977D01*
X12773Y7971D01*
X12772Y7968D01*
X12653D01*
X12652Y7971D01*
X12661Y7977D01*
X12677Y7999D01*
X12688Y8024D01*
X12692Y8052D01*
X12688Y8079D01*
X12677Y8105D01*
X12661Y8127D01*
X12639Y8144D01*
X12613Y8154D01*
X12586Y8158D01*
X12558Y8154D01*
X12533Y8144D01*
X12511Y8127D01*
X12494Y8105D01*
X12483Y8079D01*
X12480Y8052D01*
X12483Y8024D01*
X12494Y7999D01*
X12511Y7977D01*
X12519Y7971D01*
X12518Y7968D01*
X12399D01*
X12398Y7971D01*
X12407Y7977D01*
X12423Y7999D01*
X12434Y8024D01*
X12438Y8052D01*
X12434Y8079D01*
X12423Y8105D01*
X12407Y8127D01*
X12385Y8144D01*
X12359Y8154D01*
X12332Y8158D01*
X12304Y8154D01*
X12279Y8144D01*
X12257Y8127D01*
X12240Y8105D01*
X12229Y8079D01*
X12226Y8052D01*
X12229Y8024D01*
X12240Y7999D01*
X12257Y7977D01*
X12265Y7971D01*
X12264Y7968D01*
X12145D01*
X12144Y7971D01*
X12153Y7977D01*
X12169Y7999D01*
X12180Y8024D01*
X12184Y8052D01*
X12180Y8079D01*
X12176Y8089D01*
X12235Y8148D01*
X12245Y8162D01*
X12248Y8179D01*
Y8238D01*
X12251Y8239D01*
X12257Y8231D01*
X12279Y8214D01*
X12304Y8204D01*
X12332Y8200D01*
X12359Y8204D01*
X12385Y8214D01*
X12407Y8231D01*
X12423Y8253D01*
X12434Y8278D01*
X12438Y8306D01*
X12434Y8333D01*
X12423Y8359D01*
X12407Y8381D01*
X12385Y8398D01*
X12359Y8408D01*
X12332Y8412D01*
X12304Y8408D01*
X12279Y8398D01*
X12257Y8381D01*
X12251Y8373D01*
X12248Y8373D01*
Y8504D01*
X12324Y8580D01*
X15024D01*
X15041Y8583D01*
X15055Y8593D01*
X15156Y8694D01*
X15166Y8708D01*
X15166Y8711D01*
X15169Y8725D01*
Y8756D01*
X15182Y8775D01*
X15187Y8799D01*
Y8959D01*
X15182Y8982D01*
X15169Y9002D01*
X15149Y9015D01*
X15126Y9020D01*
X15102Y9015D01*
X15082Y9002D01*
X15069Y8982D01*
X15065Y8959D01*
Y8799D01*
X15069Y8775D01*
X15082Y8756D01*
Y8743D01*
X15006Y8667D01*
X12306D01*
X12292Y8664D01*
X12290Y8664D01*
X12276Y8654D01*
X12174Y8552D01*
X12164Y8538D01*
X12161Y8522D01*
Y8373D01*
X12159Y8373D01*
X12153Y8381D01*
X12131Y8398D01*
X12105Y8408D01*
X12078Y8412D01*
X12050Y8408D01*
X12025Y8398D01*
X12003Y8381D01*
X11986Y8359D01*
X11975Y8333D01*
X11972Y8306D01*
X11975Y8278D01*
X11986Y8253D01*
X12003Y8231D01*
X12025Y8214D01*
X12050Y8204D01*
X12078Y8200D01*
X12105Y8204D01*
X12131Y8214D01*
X12153Y8231D01*
X12159Y8239D01*
X12161Y8238D01*
Y8197D01*
X12115Y8150D01*
X12105Y8154D01*
X12078Y8158D01*
X12050Y8154D01*
X12025Y8144D01*
X12003Y8127D01*
X11986Y8105D01*
X11975Y8079D01*
X11972Y8052D01*
X11975Y8024D01*
X11986Y7999D01*
X12003Y7977D01*
X12011Y7971D01*
X12010Y7968D01*
X11891D01*
X11890Y7971D01*
X11899Y7977D01*
X11915Y7999D01*
X11926Y8024D01*
X11930Y8052D01*
X11926Y8079D01*
X11915Y8105D01*
X11899Y8127D01*
X11880Y8141D01*
Y8216D01*
X11899Y8231D01*
X11915Y8253D01*
X11926Y8278D01*
X11930Y8306D01*
X11926Y8333D01*
X11915Y8359D01*
X11899Y8381D01*
X11877Y8398D01*
X11851Y8408D01*
X11824Y8412D01*
X11796Y8408D01*
X11771Y8398D01*
X11749Y8381D01*
X11732Y8359D01*
X11721Y8333D01*
X11718Y8306D01*
X11721Y8278D01*
X11732Y8253D01*
X11749Y8231D01*
X11768Y8216D01*
Y8141D01*
X11749Y8127D01*
X11732Y8105D01*
X11721Y8079D01*
X11718Y8052D01*
X11721Y8024D01*
X11732Y7999D01*
X11749Y7977D01*
X11757Y7971D01*
X11756Y7968D01*
X11675D01*
Y8157D01*
X11626D01*
Y8216D01*
X11645Y8231D01*
X11661Y8253D01*
X11672Y8278D01*
X11676Y8306D01*
X11672Y8333D01*
X11661Y8359D01*
X11645Y8381D01*
X11623Y8398D01*
X11597Y8408D01*
X11570Y8412D01*
X11542Y8408D01*
X11517Y8398D01*
X11495Y8381D01*
X11478Y8359D01*
X11467Y8333D01*
X11464Y8306D01*
X11467Y8278D01*
X11478Y8253D01*
X11495Y8231D01*
X11514Y8216D01*
Y8157D01*
X11465D01*
Y7968D01*
X10069D01*
X9937Y8100D01*
Y8711D01*
X9937Y8712D01*
X9942Y8735D01*
Y8895D01*
X9937Y8919D01*
X9924Y8938D01*
X9904Y8952D01*
X9881Y8956D01*
X9857Y8952D01*
X9837Y8938D01*
X9824Y8919D01*
X9819Y8895D01*
Y8735D01*
X9824Y8712D01*
X9825Y8711D01*
Y8583D01*
X9822Y8582D01*
X9820Y8587D01*
X9810Y8601D01*
Y8711D01*
X9810Y8712D01*
X9815Y8735D01*
Y8895D01*
X9810Y8919D01*
X9797Y8938D01*
X9777Y8952D01*
X9754Y8956D01*
X9730Y8952D01*
X9710Y8938D01*
X9697Y8919D01*
X9692Y8895D01*
Y8735D01*
X9697Y8712D01*
X9698Y8711D01*
Y8635D01*
X9675Y8626D01*
X9653Y8609D01*
X9636Y8587D01*
X9626Y8562D01*
X9622Y8534D01*
X9626Y8507D01*
X9636Y8481D01*
X9653Y8460D01*
X9675Y8443D01*
X9701Y8432D01*
X9728Y8428D01*
X9756Y8432D01*
X9781Y8443D01*
X9803Y8460D01*
X9820Y8481D01*
X9822Y8487D01*
X9825Y8486D01*
Y8077D01*
X9829Y8056D01*
X9841Y8038D01*
X9841Y8038D01*
X9841Y8038D01*
X9997Y7882D01*
X9996Y7879D01*
X9701D01*
X9556Y8024D01*
Y8711D01*
X9556Y8712D01*
X9561Y8735D01*
Y8895D01*
X9556Y8919D01*
X9543Y8938D01*
X9523Y8952D01*
X9500Y8956D01*
X9476Y8952D01*
X9456Y8938D01*
X9443Y8919D01*
X9438Y8895D01*
Y8735D01*
X9443Y8712D01*
X9444Y8711D01*
Y8001D01*
X9448Y7980D01*
X9460Y7961D01*
X9460Y7961D01*
X9460Y7961D01*
X9623Y7798D01*
X9622Y7796D01*
X7996D01*
Y11444D01*
X10523D01*
X10524Y11442D01*
X10349Y11266D01*
X10337Y11248D01*
X10333Y11227D01*
Y10772D01*
X10216Y10656D01*
X10066D01*
Y10445D01*
X9962D01*
X9961Y10447D01*
X9982Y10463D01*
X10000Y10486D01*
X10011Y10513D01*
X10011Y10519D01*
X9796D01*
X9797Y10513D01*
X9808Y10486D01*
X9825Y10463D01*
X9846Y10447D01*
X9845Y10445D01*
X9713D01*
X9704Y10454D01*
X9704Y10456D01*
X9708Y10460D01*
X9727Y10483D01*
X9738Y10511D01*
X9742Y10541D01*
X9738Y10571D01*
X9727Y10599D01*
X9708Y10623D01*
X9684Y10641D01*
X9656Y10653D01*
X9627Y10657D01*
X9597Y10653D01*
X9569Y10641D01*
X9545Y10623D01*
X9527Y10599D01*
X9515Y10571D01*
X9511Y10541D01*
X9515Y10511D01*
X9527Y10483D01*
X9545Y10460D01*
X9569Y10441D01*
X9573Y10439D01*
X9575Y10431D01*
X9587Y10412D01*
X9587Y10412D01*
X9587Y10412D01*
X9650Y10349D01*
X9650Y10349D01*
X9650D01*
X9650Y10349D01*
X9650D01*
X9650Y10349D01*
Y10349D01*
Y10349D01*
D01*
D01*
X9650D01*
Y10349D01*
X9669Y10337D01*
X9690Y10333D01*
X11264D01*
X11279Y10314D01*
X11301Y10297D01*
X11326Y10286D01*
X11354Y10283D01*
X11381Y10286D01*
X11407Y10297D01*
X11429Y10314D01*
X11446Y10336D01*
X11456Y10361D01*
X11460Y10389D01*
X11456Y10416D01*
X11446Y10442D01*
X11429Y10463D01*
X11407Y10480D01*
X11381Y10491D01*
X11354Y10495D01*
X11326Y10491D01*
X11301Y10480D01*
X11279Y10463D01*
X11264Y10445D01*
X10995D01*
X10994Y10447D01*
X10996Y10448D01*
X11031Y10469D01*
X11063Y10496D01*
X11090Y10528D01*
X11112Y10563D01*
X11127Y10602D01*
X11137Y10642D01*
X11139Y10661D01*
X10614D01*
X10615Y10642D01*
X10625Y10602D01*
X10641Y10563D01*
X10662Y10528D01*
X10689Y10496D01*
X10721Y10469D01*
X10756Y10448D01*
X10758Y10447D01*
X10757Y10445D01*
X10295D01*
Y10576D01*
X10428Y10710D01*
X10428Y10710D01*
X10428Y10710D01*
X10440Y10728D01*
X10445Y10749D01*
Y11204D01*
X10605Y11364D01*
X11539D01*
Y9878D01*
X11102Y9441D01*
X10961D01*
X10946Y9460D01*
X10924Y9477D01*
X10899Y9488D01*
X10871Y9491D01*
X10844Y9488D01*
X10818Y9477D01*
X10796Y9460D01*
X10779Y9438D01*
X10769Y9413D01*
X10765Y9385D01*
X10769Y9358D01*
X10779Y9332D01*
X10796Y9310D01*
X10818Y9294D01*
X10844Y9283D01*
X10871Y9279D01*
X10899Y9283D01*
X10924Y9294D01*
X10946Y9310D01*
X10961Y9329D01*
X11125D01*
X11147Y9333D01*
X11165Y9346D01*
X11165Y9346D01*
X11165Y9346D01*
X11635Y9816D01*
X11635Y9816D01*
X11635Y9816D01*
X11647Y9834D01*
X11651Y9855D01*
Y11364D01*
X15595D01*
X15654Y11305D01*
Y10887D01*
X15651Y10886D01*
X15636Y10907D01*
X15612Y10925D01*
X15584Y10937D01*
X15554Y10941D01*
X15524Y10937D01*
X15496Y10925D01*
X15472Y10907D01*
X15454Y10883D01*
X15442Y10855D01*
X15438Y10825D01*
X15442Y10795D01*
X15454Y10767D01*
X15472Y10744D01*
X15496Y10725D01*
X15524Y10714D01*
X15554Y10710D01*
X15584Y10714D01*
X15612Y10725D01*
X15636Y10744D01*
X15651Y10764D01*
X15654Y10763D01*
Y10656D01*
X15578D01*
Y10427D01*
X15807D01*
Y10656D01*
X15766D01*
Y11328D01*
X15762Y11350D01*
X15750Y11368D01*
X15676Y11442D01*
X15677Y11444D01*
X17604D01*
Y7796D01*
D02*
G37*
%LPC*%
G36*
X9338Y8999D02*
X9205D01*
Y8941D01*
X9338D01*
Y8999D01*
D02*
G37*
G36*
X9160D02*
X9027D01*
Y8941D01*
X9160D01*
Y8999D01*
D02*
G37*
G36*
X15230Y9010D02*
X15213Y8999D01*
X15201Y8980D01*
X15196Y8959D01*
Y8901D01*
X15230D01*
Y9010D01*
D02*
G37*
G36*
X15275D02*
Y8901D01*
X15309D01*
Y8959D01*
X15305Y8980D01*
X15293Y8999D01*
X15275Y9010D01*
D02*
G37*
G36*
X14811Y9063D02*
X14678D01*
Y9005D01*
X14811D01*
Y9063D01*
D02*
G37*
G36*
X8245Y9156D02*
X8231Y9154D01*
X8197Y9140D01*
X8168Y9117D01*
X8145Y9088D01*
X8131Y9054D01*
X8129Y9039D01*
X8245D01*
Y9156D01*
D02*
G37*
G36*
X8290D02*
Y9039D01*
X8406D01*
X8404Y9054D01*
X8390Y9088D01*
X8368Y9117D01*
X8339Y9140D01*
X8304Y9154D01*
X8290Y9156D01*
D02*
G37*
G36*
X10972Y9109D02*
X10894D01*
Y9031D01*
X10972D01*
Y9109D01*
D02*
G37*
G36*
X14989Y9063D02*
X14856D01*
Y9005D01*
X14989D01*
Y9063D01*
D02*
G37*
G36*
X10849Y9109D02*
X10771D01*
Y9031D01*
X10849D01*
Y9109D01*
D02*
G37*
G36*
X15309Y8856D02*
X15275D01*
Y8747D01*
X15293Y8759D01*
X15305Y8777D01*
X15309Y8799D01*
Y8856D01*
D02*
G37*
G36*
X16360Y8823D02*
X16357Y8823D01*
X16332Y8813D01*
X16311Y8797D01*
X16295Y8776D01*
X16285Y8751D01*
X16285Y8747D01*
X16360D01*
Y8823D01*
D02*
G37*
G36*
X15230Y8856D02*
X15196D01*
Y8799D01*
X15201Y8777D01*
X15213Y8759D01*
X15230Y8747D01*
Y8856D01*
D02*
G37*
G36*
X9604Y8793D02*
X9570D01*
Y8735D01*
X9574Y8713D01*
X9587Y8695D01*
X9604Y8684D01*
Y8793D01*
D02*
G37*
G36*
X9683D02*
X9649D01*
Y8684D01*
X9667Y8695D01*
X9679Y8713D01*
X9683Y8735D01*
Y8793D01*
D02*
G37*
G36*
X8245Y8994D02*
X8129D01*
X8131Y8980D01*
X8145Y8946D01*
X8168Y8917D01*
X8197Y8894D01*
X8231Y8880D01*
X8245Y8878D01*
Y8994D01*
D02*
G37*
G36*
X8406D02*
X8290D01*
Y8878D01*
X8304Y8880D01*
X8339Y8894D01*
X8368Y8917D01*
X8390Y8946D01*
X8404Y8980D01*
X8406Y8994D01*
D02*
G37*
G36*
X9649Y8947D02*
Y8838D01*
X9683D01*
Y8895D01*
X9679Y8917D01*
X9667Y8935D01*
X9649Y8947D01*
D02*
G37*
G36*
X16405Y8823D02*
Y8747D01*
X16481D01*
X16481Y8751D01*
X16471Y8776D01*
X16455Y8797D01*
X16434Y8813D01*
X16409Y8823D01*
X16405Y8823D01*
D02*
G37*
G36*
X9604Y8947D02*
X9587Y8935D01*
X9574Y8917D01*
X9570Y8895D01*
Y8838D01*
X9604D01*
Y8947D01*
D02*
G37*
G36*
X9160Y9102D02*
X9027D01*
Y9044D01*
X9160D01*
Y9102D01*
D02*
G37*
G36*
X15113Y9834D02*
X15086Y9830D01*
X15060Y9820D01*
X15038Y9803D01*
X15021Y9781D01*
X15011Y9756D01*
X15007Y9728D01*
X15011Y9701D01*
X15021Y9675D01*
X15038Y9653D01*
X15060Y9636D01*
X15068Y9633D01*
X15073Y9625D01*
X15073Y9625D01*
X15073Y9625D01*
X15197Y9502D01*
Y9463D01*
X15196Y9462D01*
X15192Y9439D01*
Y9279D01*
X15196Y9255D01*
X15209Y9235D01*
X15229Y9222D01*
X15253Y9217D01*
X15276Y9222D01*
X15296Y9235D01*
X15309Y9255D01*
X15314Y9279D01*
Y9439D01*
X15309Y9462D01*
X15309Y9463D01*
Y9525D01*
X15305Y9546D01*
X15292Y9565D01*
X15195Y9662D01*
X15205Y9675D01*
X15215Y9701D01*
X15219Y9728D01*
X15215Y9756D01*
X15205Y9781D01*
X15188Y9803D01*
X15166Y9820D01*
X15140Y9830D01*
X15113Y9834D01*
D02*
G37*
G36*
X15507Y9500D02*
X15483Y9495D01*
X15463Y9482D01*
X15450Y9462D01*
X15446Y9439D01*
Y9279D01*
X15450Y9255D01*
X15463Y9235D01*
X15483Y9222D01*
X15507Y9217D01*
X15530Y9222D01*
X15550Y9235D01*
X15563Y9255D01*
X15568Y9279D01*
Y9439D01*
X15563Y9462D01*
X15550Y9482D01*
X15530Y9495D01*
X15507Y9500D01*
D02*
G37*
G36*
X12461Y9251D02*
X12301D01*
X12280Y9247D01*
X12261Y9235D01*
X12250Y9217D01*
X12513D01*
X12501Y9235D01*
X12483Y9247D01*
X12461Y9251D01*
D02*
G37*
G36*
X13157Y9402D02*
X13130Y9399D01*
X13104Y9388D01*
X13082Y9371D01*
X13065Y9349D01*
X13055Y9324D01*
X13051Y9296D01*
X13055Y9269D01*
X13065Y9243D01*
X13082Y9222D01*
X13104Y9205D01*
X13130Y9194D01*
X13157Y9190D01*
X13185Y9194D01*
X13210Y9205D01*
X13232Y9222D01*
X13249Y9243D01*
X13259Y9269D01*
X13263Y9296D01*
X13259Y9324D01*
X13249Y9349D01*
X13232Y9371D01*
X13210Y9388D01*
X13185Y9399D01*
X13157Y9402D01*
D02*
G37*
G36*
X13008Y9401D02*
X12798D01*
Y9191D01*
X13008D01*
Y9401D01*
D02*
G37*
G36*
X11981Y9378D02*
X11821D01*
X11800Y9374D01*
X11781Y9362D01*
X11770Y9344D01*
X12033D01*
X12021Y9362D01*
X12003Y9374D01*
X11981Y9378D01*
D02*
G37*
G36*
X12461D02*
X12301D01*
X12280Y9374D01*
X12261Y9362D01*
X12250Y9344D01*
X12513D01*
X12501Y9362D01*
X12483Y9374D01*
X12461Y9378D01*
D02*
G37*
G36*
X12513Y9299D02*
X12250D01*
X12261Y9282D01*
X12280Y9270D01*
X12301Y9265D01*
X12461D01*
X12483Y9270D01*
X12501Y9282D01*
X12513Y9299D01*
D02*
G37*
G36*
X11879D02*
X11770D01*
X11781Y9282D01*
X11800Y9270D01*
X11821Y9265D01*
X11879D01*
Y9299D01*
D02*
G37*
G36*
X12033D02*
X11924D01*
Y9265D01*
X11981D01*
X12003Y9270D01*
X12021Y9282D01*
X12033Y9299D01*
D02*
G37*
G36*
X11981Y9256D02*
X11821D01*
X11798Y9251D01*
X11778Y9238D01*
X11765Y9218D01*
X11760Y9195D01*
X11765Y9171D01*
X11778Y9152D01*
X11798Y9138D01*
X11821Y9134D01*
X11981D01*
X12005Y9138D01*
X12024Y9152D01*
X12038Y9171D01*
X12042Y9195D01*
X12038Y9218D01*
X12024Y9238D01*
X12005Y9251D01*
X11981Y9256D01*
D02*
G37*
G36*
X12359Y9172D02*
X12250D01*
X12261Y9155D01*
X12280Y9143D01*
X12301Y9138D01*
X12359D01*
Y9172D01*
D02*
G37*
G36*
X14989Y9166D02*
X14856D01*
Y9108D01*
X14989D01*
Y9166D01*
D02*
G37*
G36*
X9338Y9102D02*
X9205D01*
Y9044D01*
X9338D01*
Y9102D01*
D02*
G37*
G36*
X14811Y9166D02*
X14678D01*
Y9108D01*
X14811D01*
Y9166D01*
D02*
G37*
G36*
X9504Y9766D02*
X9477Y9762D01*
X9451Y9752D01*
X9429Y9735D01*
X9413Y9713D01*
X9402Y9687D01*
X9398Y9660D01*
X9402Y9633D01*
X9413Y9607D01*
X9429Y9585D01*
X9451Y9568D01*
X9477Y9558D01*
X9504Y9554D01*
X9528Y9557D01*
X9571Y9514D01*
Y9399D01*
X9570Y9399D01*
X9565Y9375D01*
Y9215D01*
X9570Y9192D01*
X9583Y9172D01*
X9603Y9159D01*
X9627Y9154D01*
X9650Y9159D01*
X9670Y9172D01*
X9683Y9192D01*
X9688Y9215D01*
Y9375D01*
X9683Y9399D01*
X9683Y9399D01*
Y9538D01*
X9678Y9559D01*
X9666Y9577D01*
X9607Y9636D01*
X9610Y9660D01*
X9607Y9687D01*
X9596Y9713D01*
X9579Y9735D01*
X9557Y9752D01*
X9532Y9762D01*
X9504Y9766D01*
D02*
G37*
G36*
X9881Y9436D02*
X9857Y9432D01*
X9837Y9418D01*
X9824Y9399D01*
X9819Y9375D01*
Y9215D01*
X9824Y9192D01*
X9837Y9172D01*
X9857Y9159D01*
X9881Y9154D01*
X9904Y9159D01*
X9924Y9172D01*
X9937Y9192D01*
X9942Y9215D01*
Y9375D01*
X9937Y9399D01*
X9924Y9418D01*
X9904Y9432D01*
X9881Y9436D01*
D02*
G37*
G36*
X10972Y9232D02*
X10894D01*
Y9154D01*
X10972D01*
Y9232D01*
D02*
G37*
G36*
X12513Y9172D02*
X12404D01*
Y9138D01*
X12461D01*
X12483Y9143D01*
X12501Y9155D01*
X12513Y9172D01*
D02*
G37*
G36*
X10849Y9232D02*
X10771D01*
Y9154D01*
X10849D01*
Y9232D01*
D02*
G37*
G36*
X13094Y8412D02*
X13066Y8408D01*
X13041Y8398D01*
X13019Y8381D01*
X13002Y8359D01*
X12991Y8333D01*
X12988Y8306D01*
X12991Y8278D01*
X13002Y8253D01*
X13019Y8231D01*
X13041Y8214D01*
X13066Y8204D01*
X13094Y8200D01*
X13121Y8204D01*
X13147Y8214D01*
X13169Y8231D01*
X13185Y8253D01*
X13196Y8278D01*
X13200Y8306D01*
X13196Y8333D01*
X13185Y8359D01*
X13169Y8381D01*
X13147Y8398D01*
X13121Y8408D01*
X13094Y8412D01*
D02*
G37*
G36*
X13348D02*
X13320Y8408D01*
X13295Y8398D01*
X13273Y8381D01*
X13256Y8359D01*
X13245Y8333D01*
X13242Y8306D01*
X13245Y8278D01*
X13256Y8253D01*
X13273Y8231D01*
X13295Y8214D01*
X13320Y8204D01*
X13348Y8200D01*
X13375Y8204D01*
X13401Y8214D01*
X13423Y8231D01*
X13439Y8253D01*
X13450Y8278D01*
X13454Y8306D01*
X13450Y8333D01*
X13439Y8359D01*
X13423Y8381D01*
X13401Y8398D01*
X13375Y8408D01*
X13348Y8412D01*
D02*
G37*
G36*
X12840D02*
X12812Y8408D01*
X12787Y8398D01*
X12765Y8381D01*
X12748Y8359D01*
X12737Y8333D01*
X12734Y8306D01*
X12737Y8278D01*
X12748Y8253D01*
X12765Y8231D01*
X12787Y8214D01*
X12812Y8204D01*
X12840Y8200D01*
X12867Y8204D01*
X12893Y8214D01*
X12915Y8231D01*
X12931Y8253D01*
X12942Y8278D01*
X12946Y8306D01*
X12942Y8333D01*
X12931Y8359D01*
X12915Y8381D01*
X12893Y8398D01*
X12867Y8408D01*
X12840Y8412D01*
D02*
G37*
G36*
X15148Y8150D02*
Y8074D01*
X15224D01*
X15224Y8078D01*
X15213Y8102D01*
X15197Y8123D01*
X15176Y8139D01*
X15152Y8150D01*
X15148Y8150D01*
D02*
G37*
G36*
X12586Y8412D02*
X12558Y8408D01*
X12533Y8398D01*
X12511Y8381D01*
X12494Y8359D01*
X12483Y8333D01*
X12480Y8306D01*
X12483Y8278D01*
X12494Y8253D01*
X12511Y8231D01*
X12533Y8214D01*
X12558Y8204D01*
X12586Y8200D01*
X12613Y8204D01*
X12639Y8214D01*
X12661Y8231D01*
X12677Y8253D01*
X12688Y8278D01*
X12692Y8306D01*
X12688Y8333D01*
X12677Y8359D01*
X12661Y8381D01*
X12639Y8398D01*
X12613Y8408D01*
X12586Y8412D01*
D02*
G37*
G36*
X14364D02*
X14336Y8408D01*
X14311Y8398D01*
X14289Y8381D01*
X14272Y8359D01*
X14261Y8333D01*
X14258Y8306D01*
X14261Y8278D01*
X14272Y8253D01*
X14289Y8231D01*
X14311Y8214D01*
X14336Y8204D01*
X14364Y8200D01*
X14391Y8204D01*
X14417Y8214D01*
X14439Y8231D01*
X14455Y8253D01*
X14466Y8278D01*
X14470Y8306D01*
X14466Y8333D01*
X14455Y8359D01*
X14439Y8381D01*
X14417Y8398D01*
X14391Y8408D01*
X14364Y8412D01*
D02*
G37*
G36*
X14618D02*
X14590Y8408D01*
X14565Y8398D01*
X14543Y8381D01*
X14526Y8359D01*
X14515Y8333D01*
X14512Y8306D01*
X14515Y8278D01*
X14526Y8253D01*
X14543Y8231D01*
X14565Y8214D01*
X14590Y8204D01*
X14618Y8200D01*
X14645Y8204D01*
X14671Y8214D01*
X14693Y8231D01*
X14709Y8253D01*
X14720Y8278D01*
X14724Y8306D01*
X14720Y8333D01*
X14709Y8359D01*
X14693Y8381D01*
X14671Y8398D01*
X14645Y8408D01*
X14618Y8412D01*
D02*
G37*
G36*
X14110D02*
X14082Y8408D01*
X14057Y8398D01*
X14035Y8381D01*
X14018Y8359D01*
X14007Y8333D01*
X14004Y8306D01*
X14007Y8278D01*
X14018Y8253D01*
X14035Y8231D01*
X14057Y8214D01*
X14082Y8204D01*
X14110Y8200D01*
X14137Y8204D01*
X14163Y8214D01*
X14185Y8231D01*
X14201Y8253D01*
X14212Y8278D01*
X14216Y8306D01*
X14212Y8333D01*
X14201Y8359D01*
X14185Y8381D01*
X14163Y8398D01*
X14137Y8408D01*
X14110Y8412D01*
D02*
G37*
G36*
X13602D02*
X13574Y8408D01*
X13549Y8398D01*
X13527Y8381D01*
X13510Y8359D01*
X13499Y8333D01*
X13496Y8306D01*
X13499Y8278D01*
X13510Y8253D01*
X13527Y8231D01*
X13549Y8214D01*
X13574Y8204D01*
X13602Y8200D01*
X13629Y8204D01*
X13655Y8214D01*
X13677Y8231D01*
X13693Y8253D01*
X13704Y8278D01*
X13708Y8306D01*
X13704Y8333D01*
X13693Y8359D01*
X13677Y8381D01*
X13655Y8398D01*
X13629Y8408D01*
X13602Y8412D01*
D02*
G37*
G36*
X13856D02*
X13828Y8408D01*
X13803Y8398D01*
X13781Y8381D01*
X13764Y8359D01*
X13753Y8333D01*
X13750Y8306D01*
X13753Y8278D01*
X13764Y8253D01*
X13781Y8231D01*
X13803Y8214D01*
X13828Y8204D01*
X13856Y8200D01*
X13883Y8204D01*
X13909Y8214D01*
X13931Y8231D01*
X13947Y8253D01*
X13958Y8278D01*
X13962Y8306D01*
X13958Y8333D01*
X13947Y8359D01*
X13931Y8381D01*
X13909Y8398D01*
X13883Y8408D01*
X13856Y8412D01*
D02*
G37*
G36*
X15380Y8158D02*
X15352Y8154D01*
X15327Y8144D01*
X15305Y8127D01*
X15288Y8105D01*
X15277Y8079D01*
X15274Y8052D01*
X15277Y8024D01*
X15288Y7999D01*
X15305Y7977D01*
X15327Y7960D01*
X15352Y7950D01*
X15380Y7946D01*
X15407Y7950D01*
X15433Y7960D01*
X15455Y7977D01*
X15471Y7999D01*
X15482Y8024D01*
X15486Y8052D01*
X15482Y8079D01*
X15471Y8105D01*
X15455Y8127D01*
X15433Y8144D01*
X15407Y8154D01*
X15380Y8158D01*
D02*
G37*
G36*
X15888D02*
X15860Y8154D01*
X15835Y8144D01*
X15813Y8127D01*
X15796Y8105D01*
X15785Y8079D01*
X15782Y8052D01*
X15785Y8024D01*
X15796Y7999D01*
X15813Y7977D01*
X15835Y7960D01*
X15860Y7950D01*
X15888Y7946D01*
X15915Y7950D01*
X15941Y7960D01*
X15963Y7977D01*
X15979Y7999D01*
X15990Y8024D01*
X15994Y8052D01*
X15990Y8079D01*
X15979Y8105D01*
X15963Y8127D01*
X15941Y8144D01*
X15915Y8154D01*
X15888Y8158D01*
D02*
G37*
G36*
X15507Y9020D02*
X15483Y9015D01*
X15463Y9002D01*
X15450Y8982D01*
X15446Y8959D01*
Y8799D01*
X15450Y8775D01*
X15451Y8775D01*
Y8738D01*
X15455Y8716D01*
X15467Y8698D01*
X15645Y8520D01*
X15663Y8508D01*
X15685Y8504D01*
X16652D01*
X16708Y8448D01*
Y7935D01*
X16703Y7930D01*
X15695D01*
X15690Y7935D01*
Y7962D01*
X15709Y7977D01*
X15725Y7999D01*
X15736Y8024D01*
X15740Y8052D01*
X15736Y8079D01*
X15725Y8105D01*
X15709Y8127D01*
X15687Y8144D01*
X15661Y8154D01*
X15634Y8158D01*
X15606Y8154D01*
X15581Y8144D01*
X15559Y8127D01*
X15542Y8105D01*
X15531Y8079D01*
X15528Y8052D01*
X15531Y8024D01*
X15542Y7999D01*
X15559Y7977D01*
X15578Y7962D01*
Y7912D01*
X15582Y7891D01*
X15594Y7872D01*
X15594Y7872D01*
X15594Y7872D01*
X15632Y7834D01*
X15632Y7834D01*
X15632D01*
X15632Y7834D01*
X15632D01*
X15632Y7834D01*
Y7834D01*
Y7834D01*
D01*
D01*
X15632D01*
Y7834D01*
X15650Y7822D01*
X15672Y7818D01*
X16726D01*
X16747Y7822D01*
X16766Y7834D01*
X16766Y7834D01*
X16766Y7834D01*
X16804Y7872D01*
X16804Y7872D01*
X16804Y7872D01*
X16816Y7891D01*
X16820Y7912D01*
Y8471D01*
X16816Y8492D01*
X16804Y8511D01*
X16715Y8599D01*
X16697Y8612D01*
X16675Y8616D01*
X15708D01*
X15563Y8761D01*
Y8775D01*
X15563Y8775D01*
X15568Y8799D01*
Y8959D01*
X15563Y8982D01*
X15550Y9002D01*
X15530Y9015D01*
X15507Y9020D01*
D02*
G37*
G36*
X17247Y8510D02*
X17195Y8506D01*
X17144Y8494D01*
X17096Y8474D01*
X17052Y8447D01*
X17013Y8413D01*
X16979Y8373D01*
X16952Y8329D01*
X16932Y8281D01*
X16920Y8231D01*
X16916Y8179D01*
X16920Y8127D01*
X16932Y8077D01*
X16952Y8029D01*
X16979Y7984D01*
X17013Y7945D01*
X17052Y7911D01*
X17096Y7884D01*
X17144Y7864D01*
X17195Y7852D01*
X17247Y7848D01*
X17298Y7852D01*
X17349Y7864D01*
X17397Y7884D01*
X17441Y7911D01*
X17481Y7945D01*
X17514Y7984D01*
X17542Y8029D01*
X17561Y8077D01*
X17574Y8127D01*
X17578Y8179D01*
X17574Y8231D01*
X17561Y8281D01*
X17542Y8329D01*
X17514Y8373D01*
X17481Y8413D01*
X17441Y8447D01*
X17397Y8474D01*
X17349Y8494D01*
X17298Y8506D01*
X17247Y8510D01*
D02*
G37*
G36*
X8344Y8548D02*
X8292Y8544D01*
X8242Y8532D01*
X8194Y8512D01*
X8149Y8485D01*
X8110Y8451D01*
X8076Y8411D01*
X8049Y8367D01*
X8029Y8319D01*
X8017Y8269D01*
X8013Y8217D01*
X8017Y8165D01*
X8029Y8115D01*
X8049Y8067D01*
X8076Y8022D01*
X8110Y7983D01*
X8149Y7949D01*
X8194Y7922D01*
X8242Y7902D01*
X8292Y7890D01*
X8344Y7886D01*
X8396Y7890D01*
X8446Y7902D01*
X8494Y7922D01*
X8538Y7949D01*
X8578Y7983D01*
X8612Y8022D01*
X8639Y8067D01*
X8659Y8115D01*
X8671Y8165D01*
X8675Y8217D01*
X8671Y8269D01*
X8659Y8319D01*
X8639Y8367D01*
X8612Y8411D01*
X8578Y8451D01*
X8538Y8485D01*
X8494Y8512D01*
X8446Y8532D01*
X8396Y8544D01*
X8344Y8548D01*
D02*
G37*
G36*
X15224Y8029D02*
X15148D01*
Y7953D01*
X15152Y7954D01*
X15176Y7964D01*
X15197Y7980D01*
X15213Y8001D01*
X15224Y8026D01*
X15224Y8029D01*
D02*
G37*
G36*
X15103Y8150D02*
X15099Y8150D01*
X15075Y8139D01*
X15054Y8123D01*
X15038Y8102D01*
X15028Y8078D01*
X15027Y8074D01*
X15103D01*
Y8150D01*
D02*
G37*
G36*
Y8029D02*
X15027D01*
X15028Y8026D01*
X15038Y8001D01*
X15054Y7980D01*
X15075Y7964D01*
X15099Y7954D01*
X15103Y7953D01*
Y8029D01*
D02*
G37*
G36*
X16142Y8158D02*
X16114Y8154D01*
X16089Y8144D01*
X16067Y8127D01*
X16050Y8105D01*
X16039Y8079D01*
X16036Y8052D01*
X16039Y8024D01*
X16050Y7999D01*
X16067Y7977D01*
X16089Y7960D01*
X16114Y7950D01*
X16142Y7946D01*
X16169Y7950D01*
X16195Y7960D01*
X16217Y7977D01*
X16233Y7999D01*
X16244Y8024D01*
X16248Y8052D01*
X16244Y8079D01*
X16233Y8105D01*
X16217Y8127D01*
X16195Y8144D01*
X16169Y8154D01*
X16142Y8158D01*
D02*
G37*
G36*
X16396D02*
X16368Y8154D01*
X16343Y8144D01*
X16321Y8127D01*
X16304Y8105D01*
X16293Y8079D01*
X16290Y8052D01*
X16293Y8024D01*
X16304Y7999D01*
X16321Y7977D01*
X16343Y7960D01*
X16368Y7950D01*
X16396Y7946D01*
X16423Y7950D01*
X16449Y7960D01*
X16471Y7977D01*
X16487Y7999D01*
X16498Y8024D01*
X16502Y8052D01*
X16498Y8079D01*
X16487Y8105D01*
X16471Y8127D01*
X16449Y8144D01*
X16423Y8154D01*
X16396Y8158D01*
D02*
G37*
G36*
X14872Y8412D02*
X14844Y8408D01*
X14819Y8398D01*
X14797Y8381D01*
X14780Y8359D01*
X14769Y8333D01*
X14766Y8306D01*
X14769Y8278D01*
X14780Y8253D01*
X14797Y8231D01*
X14819Y8214D01*
X14844Y8204D01*
X14872Y8200D01*
X14899Y8204D01*
X14925Y8214D01*
X14947Y8231D01*
X14963Y8253D01*
X14974Y8278D01*
X14978Y8306D01*
X14974Y8333D01*
X14963Y8359D01*
X14947Y8381D01*
X14925Y8398D01*
X14899Y8408D01*
X14872Y8412D01*
D02*
G37*
G36*
X11890Y8575D02*
X11814D01*
X11815Y8572D01*
X11825Y8547D01*
X11841Y8526D01*
X11862Y8510D01*
X11886Y8500D01*
X11890Y8500D01*
Y8575D01*
D02*
G37*
G36*
X12011D02*
X11935D01*
Y8500D01*
X11939Y8500D01*
X11963Y8510D01*
X11984Y8526D01*
X12000Y8547D01*
X12010Y8572D01*
X12011Y8575D01*
D02*
G37*
G36*
X15148Y8404D02*
Y8328D01*
X15224D01*
X15224Y8332D01*
X15213Y8356D01*
X15197Y8377D01*
X15176Y8393D01*
X15152Y8404D01*
X15148Y8404D01*
D02*
G37*
G36*
X8951D02*
Y8328D01*
X9026D01*
X9026Y8332D01*
X9016Y8356D01*
X9000Y8377D01*
X8979Y8393D01*
X8954Y8404D01*
X8951Y8404D01*
D02*
G37*
G36*
X15103D02*
X15099Y8404D01*
X15075Y8393D01*
X15054Y8377D01*
X15038Y8356D01*
X15028Y8332D01*
X15027Y8328D01*
X15103D01*
Y8404D01*
D02*
G37*
G36*
X16360Y8702D02*
X16285D01*
X16285Y8699D01*
X16295Y8674D01*
X16311Y8653D01*
X16332Y8637D01*
X16357Y8627D01*
X16360Y8627D01*
Y8702D01*
D02*
G37*
G36*
X16481D02*
X16405D01*
Y8627D01*
X16409Y8627D01*
X16434Y8637D01*
X16455Y8653D01*
X16471Y8674D01*
X16481Y8699D01*
X16481Y8702D01*
D02*
G37*
G36*
X11935Y8696D02*
Y8620D01*
X12011D01*
X12010Y8624D01*
X12000Y8649D01*
X11984Y8670D01*
X11963Y8686D01*
X11939Y8696D01*
X11935Y8696D01*
D02*
G37*
G36*
X15380Y9020D02*
X15356Y9015D01*
X15336Y9002D01*
X15323Y8982D01*
X15319Y8959D01*
Y8799D01*
X15323Y8775D01*
X15324Y8775D01*
Y8706D01*
X15314Y8702D01*
X15292Y8685D01*
X15275Y8664D01*
X15265Y8638D01*
X15261Y8611D01*
X15265Y8583D01*
X15275Y8558D01*
X15292Y8536D01*
X15314Y8519D01*
X15340Y8508D01*
X15367Y8505D01*
X15394Y8508D01*
X15420Y8519D01*
X15442Y8536D01*
X15459Y8558D01*
X15469Y8583D01*
X15473Y8611D01*
X15469Y8638D01*
X15459Y8664D01*
X15442Y8685D01*
X15436Y8690D01*
Y8775D01*
X15436Y8775D01*
X15441Y8799D01*
Y8959D01*
X15436Y8982D01*
X15423Y9002D01*
X15403Y9015D01*
X15380Y9020D01*
D02*
G37*
G36*
X11890Y8696D02*
X11886Y8696D01*
X11862Y8686D01*
X11841Y8670D01*
X11825Y8649D01*
X11815Y8624D01*
X11814Y8620D01*
X11890D01*
Y8696D01*
D02*
G37*
G36*
X16142Y8412D02*
X16114Y8408D01*
X16089Y8398D01*
X16067Y8381D01*
X16050Y8359D01*
X16039Y8333D01*
X16036Y8306D01*
X16039Y8278D01*
X16050Y8253D01*
X16067Y8231D01*
X16089Y8214D01*
X16114Y8204D01*
X16142Y8200D01*
X16169Y8204D01*
X16195Y8214D01*
X16217Y8231D01*
X16233Y8253D01*
X16244Y8278D01*
X16248Y8306D01*
X16244Y8333D01*
X16233Y8359D01*
X16217Y8381D01*
X16195Y8398D01*
X16169Y8408D01*
X16142Y8412D01*
D02*
G37*
G36*
X16396D02*
X16368Y8408D01*
X16343Y8398D01*
X16321Y8381D01*
X16304Y8359D01*
X16293Y8333D01*
X16290Y8306D01*
X16293Y8278D01*
X16304Y8253D01*
X16321Y8231D01*
X16343Y8214D01*
X16368Y8204D01*
X16396Y8200D01*
X16423Y8204D01*
X16449Y8214D01*
X16471Y8231D01*
X16487Y8253D01*
X16498Y8278D01*
X16502Y8306D01*
X16498Y8333D01*
X16487Y8359D01*
X16471Y8381D01*
X16449Y8398D01*
X16423Y8408D01*
X16396Y8412D01*
D02*
G37*
G36*
X15888D02*
X15860Y8408D01*
X15835Y8398D01*
X15813Y8381D01*
X15796Y8359D01*
X15785Y8333D01*
X15782Y8306D01*
X15785Y8278D01*
X15796Y8253D01*
X15813Y8231D01*
X15835Y8214D01*
X15860Y8204D01*
X15888Y8200D01*
X15915Y8204D01*
X15941Y8214D01*
X15963Y8231D01*
X15979Y8253D01*
X15990Y8278D01*
X15994Y8306D01*
X15990Y8333D01*
X15979Y8359D01*
X15963Y8381D01*
X15941Y8398D01*
X15915Y8408D01*
X15888Y8412D01*
D02*
G37*
G36*
X15380D02*
X15352Y8408D01*
X15327Y8398D01*
X15305Y8381D01*
X15288Y8359D01*
X15277Y8333D01*
X15274Y8306D01*
X15277Y8278D01*
X15288Y8253D01*
X15305Y8231D01*
X15327Y8214D01*
X15352Y8204D01*
X15380Y8200D01*
X15407Y8204D01*
X15433Y8214D01*
X15455Y8231D01*
X15471Y8253D01*
X15482Y8278D01*
X15486Y8306D01*
X15482Y8333D01*
X15471Y8359D01*
X15455Y8381D01*
X15433Y8398D01*
X15407Y8408D01*
X15380Y8412D01*
D02*
G37*
G36*
X15634D02*
X15606Y8408D01*
X15581Y8398D01*
X15559Y8381D01*
X15542Y8359D01*
X15531Y8333D01*
X15528Y8306D01*
X15531Y8278D01*
X15542Y8253D01*
X15559Y8231D01*
X15581Y8214D01*
X15606Y8204D01*
X15634Y8200D01*
X15661Y8204D01*
X15687Y8214D01*
X15709Y8231D01*
X15725Y8253D01*
X15736Y8278D01*
X15740Y8306D01*
X15736Y8333D01*
X15725Y8359D01*
X15709Y8381D01*
X15687Y8398D01*
X15661Y8408D01*
X15634Y8412D01*
D02*
G37*
G36*
X15224Y8283D02*
X15148D01*
Y8207D01*
X15152Y8208D01*
X15176Y8218D01*
X15197Y8234D01*
X15213Y8255D01*
X15224Y8280D01*
X15224Y8283D01*
D02*
G37*
G36*
X8906Y8404D02*
X8902Y8404D01*
X8877Y8393D01*
X8856Y8377D01*
X8840Y8356D01*
X8830Y8332D01*
X8830Y8328D01*
X8906D01*
Y8404D01*
D02*
G37*
G36*
X15103Y8283D02*
X15027D01*
X15028Y8280D01*
X15038Y8255D01*
X15054Y8234D01*
X15075Y8218D01*
X15099Y8208D01*
X15103Y8207D01*
Y8283D01*
D02*
G37*
G36*
X8906D02*
X8830D01*
X8830Y8280D01*
X8840Y8255D01*
X8856Y8234D01*
X8877Y8218D01*
X8902Y8208D01*
X8906Y8207D01*
Y8283D01*
D02*
G37*
G36*
X9026D02*
X8951D01*
Y8207D01*
X8954Y8208D01*
X8979Y8218D01*
X9000Y8234D01*
X9016Y8255D01*
X9026Y8280D01*
X9026Y8283D01*
D02*
G37*
G36*
X9500Y9436D02*
X9476Y9432D01*
X9456Y9418D01*
X9443Y9399D01*
X9438Y9375D01*
Y9353D01*
X9437Y9351D01*
X9342Y9352D01*
Y9377D01*
X9022D01*
Y9207D01*
X9342D01*
Y9238D01*
X9344Y9240D01*
X9438Y9239D01*
Y9215D01*
X9443Y9192D01*
X9456Y9172D01*
X9476Y9159D01*
X9500Y9154D01*
X9523Y9159D01*
X9543Y9172D01*
X9556Y9192D01*
X9561Y9215D01*
Y9375D01*
X9556Y9399D01*
X9543Y9418D01*
X9523Y9432D01*
X9500Y9436D01*
D02*
G37*
G36*
X12703Y10659D02*
X12493D01*
Y10449D01*
X12703D01*
Y10659D01*
D02*
G37*
G36*
X9881Y10649D02*
X9875Y10648D01*
X9848Y10637D01*
X9825Y10620D01*
X9808Y10597D01*
X9797Y10570D01*
X9796Y10564D01*
X9881D01*
Y10649D01*
D02*
G37*
G36*
X12344Y10660D02*
X12317Y10656D01*
X12291Y10645D01*
X12270Y10629D01*
X12253Y10607D01*
X12242Y10581D01*
X12238Y10554D01*
X12242Y10526D01*
X12253Y10501D01*
X12270Y10479D01*
X12291Y10462D01*
X12317Y10451D01*
X12344Y10448D01*
X12372Y10451D01*
X12397Y10462D01*
X12419Y10479D01*
X12436Y10501D01*
X12447Y10526D01*
X12450Y10554D01*
X12447Y10581D01*
X12436Y10607D01*
X12419Y10629D01*
X12397Y10645D01*
X12372Y10656D01*
X12344Y10660D01*
D02*
G37*
G36*
X15393Y10519D02*
X15308D01*
X15308Y10513D01*
X15319Y10486D01*
X15337Y10463D01*
X15360Y10445D01*
X15387Y10434D01*
X15393Y10433D01*
Y10519D01*
D02*
G37*
G36*
X15523D02*
X15438D01*
Y10433D01*
X15444Y10434D01*
X15471Y10445D01*
X15494Y10463D01*
X15511Y10486D01*
X15522Y10513D01*
X15523Y10519D01*
D02*
G37*
G36*
X8355Y10946D02*
X8336Y10944D01*
X8295Y10934D01*
X8257Y10919D01*
X8222Y10897D01*
X8190Y10870D01*
X8163Y10839D01*
X8142Y10803D01*
X8126Y10765D01*
X8116Y10725D01*
X8115Y10706D01*
X8355D01*
Y10946D01*
D02*
G37*
G36*
X8400D02*
Y10706D01*
X8640D01*
X8638Y10725D01*
X8628Y10765D01*
X8613Y10803D01*
X8591Y10839D01*
X8564Y10870D01*
X8532Y10897D01*
X8497Y10919D01*
X8459Y10934D01*
X8418Y10944D01*
X8400Y10946D01*
D02*
G37*
G36*
X15438Y10649D02*
Y10564D01*
X15523D01*
X15522Y10570D01*
X15511Y10597D01*
X15494Y10620D01*
X15471Y10637D01*
X15444Y10648D01*
X15438Y10649D01*
D02*
G37*
G36*
X9926D02*
Y10564D01*
X10011D01*
X10011Y10570D01*
X10000Y10597D01*
X9982Y10620D01*
X9959Y10637D01*
X9932Y10648D01*
X9926Y10649D01*
D02*
G37*
G36*
X15393D02*
X15387Y10648D01*
X15360Y10637D01*
X15337Y10620D01*
X15319Y10597D01*
X15308Y10570D01*
X15308Y10564D01*
X15393D01*
Y10649D01*
D02*
G37*
G36*
X13866Y10661D02*
X13626D01*
X13628Y10642D01*
X13638Y10602D01*
X13653Y10563D01*
X13675Y10528D01*
X13702Y10496D01*
X13734Y10469D01*
X13769Y10448D01*
X13807Y10432D01*
X13848Y10422D01*
X13866Y10421D01*
Y10661D01*
D02*
G37*
G36*
X14151D02*
X13911D01*
Y10421D01*
X13930Y10422D01*
X13971Y10432D01*
X14009Y10448D01*
X14044Y10469D01*
X14076Y10496D01*
X14103Y10528D01*
X14124Y10563D01*
X14140Y10602D01*
X14150Y10642D01*
X14151Y10661D01*
D02*
G37*
G36*
X8640D02*
X8400D01*
Y10421D01*
X8418Y10422D01*
X8459Y10432D01*
X8497Y10448D01*
X8532Y10469D01*
X8564Y10496D01*
X8591Y10528D01*
X8613Y10563D01*
X8628Y10602D01*
X8638Y10642D01*
X8640Y10661D01*
D02*
G37*
G36*
X12449Y10354D02*
X12239D01*
Y10144D01*
X12449D01*
Y10354D01*
D02*
G37*
G36*
X8355Y10661D02*
X8115D01*
X8116Y10642D01*
X8126Y10602D01*
X8142Y10563D01*
X8163Y10528D01*
X8190Y10496D01*
X8222Y10469D01*
X8257Y10448D01*
X8295Y10432D01*
X8336Y10422D01*
X8355Y10421D01*
Y10661D01*
D02*
G37*
G36*
X14861Y10657D02*
X14832Y10653D01*
X14804Y10641D01*
X14780Y10623D01*
X14761Y10599D01*
X14750Y10571D01*
X14746Y10541D01*
X14750Y10511D01*
X14761Y10483D01*
X14780Y10460D01*
X14804Y10441D01*
X14832Y10430D01*
X14861Y10426D01*
X14891Y10430D01*
X14919Y10441D01*
X14943Y10460D01*
X14961Y10483D01*
X14973Y10511D01*
X14977Y10541D01*
X14973Y10571D01*
X14961Y10599D01*
X14943Y10623D01*
X14919Y10641D01*
X14891Y10653D01*
X14861Y10657D01*
D02*
G37*
G36*
X15138D02*
X15109Y10653D01*
X15081Y10641D01*
X15057Y10623D01*
X15038Y10599D01*
X15027Y10571D01*
X15023Y10541D01*
X15027Y10511D01*
X15038Y10483D01*
X15057Y10460D01*
X15081Y10441D01*
X15109Y10430D01*
X15138Y10426D01*
X15168Y10430D01*
X15196Y10441D01*
X15220Y10460D01*
X15238Y10483D01*
X15250Y10511D01*
X15254Y10541D01*
X15250Y10571D01*
X15238Y10599D01*
X15220Y10623D01*
X15196Y10641D01*
X15168Y10653D01*
X15138Y10657D01*
D02*
G37*
G36*
X9350D02*
X9320Y10653D01*
X9292Y10641D01*
X9268Y10623D01*
X9250Y10599D01*
X9238Y10571D01*
X9234Y10541D01*
X9238Y10511D01*
X9250Y10483D01*
X9268Y10460D01*
X9292Y10441D01*
X9320Y10430D01*
X9350Y10426D01*
X9379Y10430D01*
X9407Y10441D01*
X9431Y10460D01*
X9450Y10483D01*
X9461Y10511D01*
X9465Y10541D01*
X9461Y10571D01*
X9450Y10599D01*
X9431Y10623D01*
X9407Y10641D01*
X9379Y10653D01*
X9350Y10657D01*
D02*
G37*
G36*
X16365Y10661D02*
X16125D01*
X16127Y10642D01*
X16137Y10602D01*
X16152Y10563D01*
X16174Y10528D01*
X16201Y10496D01*
X16233Y10469D01*
X16268Y10448D01*
X16306Y10432D01*
X16347Y10422D01*
X16365Y10421D01*
Y10661D01*
D02*
G37*
G36*
X16650D02*
X16410D01*
Y10421D01*
X16429Y10422D01*
X16470Y10432D01*
X16508Y10448D01*
X16543Y10469D01*
X16575Y10496D01*
X16602Y10528D01*
X16623Y10563D01*
X16639Y10602D01*
X16649Y10642D01*
X16650Y10661D01*
D02*
G37*
G36*
X10854Y10946D02*
X10835Y10944D01*
X10794Y10934D01*
X10756Y10919D01*
X10721Y10897D01*
X10689Y10870D01*
X10662Y10839D01*
X10641Y10803D01*
X10625Y10765D01*
X10615Y10725D01*
X10614Y10706D01*
X10854D01*
Y10946D01*
D02*
G37*
G36*
X17110Y10976D02*
X17034D01*
X17034Y10972D01*
X17045Y10948D01*
X17061Y10927D01*
X17082Y10911D01*
X17106Y10900D01*
X17110Y10900D01*
Y10976D01*
D02*
G37*
G36*
X17231D02*
X17155D01*
Y10900D01*
X17159Y10900D01*
X17183Y10911D01*
X17204Y10927D01*
X17220Y10948D01*
X17230Y10972D01*
X17231Y10976D01*
D02*
G37*
G36*
X12703Y10964D02*
X12493D01*
Y10754D01*
X12703D01*
Y10964D01*
D02*
G37*
G36*
X15277Y10941D02*
X15247Y10937D01*
X15219Y10925D01*
X15195Y10907D01*
X15177Y10883D01*
X15165Y10855D01*
X15161Y10825D01*
X15165Y10795D01*
X15177Y10767D01*
X15195Y10744D01*
X15219Y10725D01*
X15247Y10714D01*
X15277Y10710D01*
X15307Y10714D01*
X15335Y10725D01*
X15359Y10744D01*
X15377Y10767D01*
X15388Y10795D01*
X15392Y10825D01*
X15388Y10855D01*
X15377Y10883D01*
X15359Y10907D01*
X15335Y10925D01*
X15307Y10937D01*
X15277Y10941D01*
D02*
G37*
G36*
X12344Y10964D02*
X12317Y10961D01*
X12291Y10950D01*
X12270Y10933D01*
X12253Y10911D01*
X12242Y10886D01*
X12238Y10858D01*
X12242Y10831D01*
X12253Y10806D01*
X12270Y10784D01*
X12291Y10767D01*
X12317Y10756D01*
X12344Y10753D01*
X12372Y10756D01*
X12397Y10767D01*
X12419Y10784D01*
X12436Y10806D01*
X12447Y10831D01*
X12450Y10858D01*
X12447Y10886D01*
X12436Y10911D01*
X12419Y10933D01*
X12397Y10950D01*
X12372Y10961D01*
X12344Y10964D01*
D02*
G37*
G36*
X12703Y11268D02*
X12493D01*
Y11058D01*
X12703D01*
Y11268D01*
D02*
G37*
G36*
X9398Y11368D02*
X9375Y11365D01*
X9353Y11356D01*
X9334Y11342D01*
X9328Y11334D01*
X9284D01*
X9262Y11329D01*
X9244Y11317D01*
X9168Y11241D01*
X9156Y11223D01*
X9151Y11201D01*
Y10924D01*
X9129Y10907D01*
X9111Y10883D01*
X9110Y10881D01*
X8920D01*
X8899Y10877D01*
X8881Y10865D01*
X8774Y10758D01*
X8762Y10740D01*
X8758Y10719D01*
Y9675D01*
X8664Y9581D01*
X8401D01*
X8394Y9598D01*
X8371Y9628D01*
X8341Y9652D01*
X8306Y9666D01*
X8268Y9671D01*
X8230Y9666D01*
X8195Y9652D01*
X8164Y9628D01*
X8141Y9598D01*
X8126Y9563D01*
X8121Y9525D01*
X8126Y9487D01*
X8141Y9452D01*
X8164Y9422D01*
X8195Y9398D01*
X8230Y9384D01*
X8268Y9379D01*
X8306Y9384D01*
X8341Y9398D01*
X8371Y9422D01*
X8394Y9452D01*
X8401Y9469D01*
X8687D01*
X8708Y9473D01*
X8726Y9485D01*
X8726Y9485D01*
X8726Y9485D01*
X8853Y9612D01*
X8853Y9612D01*
X8853Y9612D01*
X8866Y9631D01*
X8870Y9652D01*
Y10696D01*
X8943Y10769D01*
X9110D01*
X9111Y10767D01*
X9129Y10744D01*
X9153Y10725D01*
X9181Y10714D01*
X9211Y10710D01*
X9241Y10714D01*
X9269Y10725D01*
X9293Y10744D01*
X9311Y10767D01*
X9323Y10795D01*
X9327Y10825D01*
X9323Y10855D01*
X9311Y10883D01*
X9293Y10907D01*
X9269Y10925D01*
X9264Y10927D01*
Y11178D01*
X9307Y11222D01*
X9328D01*
X9334Y11213D01*
X9353Y11199D01*
X9375Y11190D01*
X9398Y11187D01*
X9421Y11190D01*
X9443Y11199D01*
X9462Y11213D01*
X9477Y11232D01*
X9486Y11254D01*
X9489Y11278D01*
X9486Y11301D01*
X9477Y11323D01*
X9462Y11342D01*
X9443Y11356D01*
X9421Y11365D01*
X9398Y11368D01*
D02*
G37*
G36*
X12344Y11269D02*
X12317Y11266D01*
X12291Y11255D01*
X12270Y11238D01*
X12253Y11216D01*
X12242Y11191D01*
X12238Y11163D01*
X12242Y11136D01*
X12253Y11110D01*
X12270Y11088D01*
X12291Y11072D01*
X12317Y11061D01*
X12344Y11057D01*
X12372Y11061D01*
X12397Y11072D01*
X12419Y11088D01*
X12436Y11110D01*
X12447Y11136D01*
X12450Y11163D01*
X12447Y11191D01*
X12436Y11216D01*
X12419Y11238D01*
X12397Y11255D01*
X12372Y11266D01*
X12344Y11269D01*
D02*
G37*
G36*
X17110Y11097D02*
X17106Y11096D01*
X17082Y11086D01*
X17061Y11070D01*
X17045Y11049D01*
X17034Y11024D01*
X17034Y11021D01*
X17110D01*
Y11097D01*
D02*
G37*
G36*
X17155D02*
Y11021D01*
X17231D01*
X17230Y11024D01*
X17220Y11049D01*
X17204Y11070D01*
X17183Y11086D01*
X17159Y11096D01*
X17155Y11097D01*
D02*
G37*
G36*
X16365Y10946D02*
X16347Y10944D01*
X16306Y10934D01*
X16268Y10919D01*
X16233Y10897D01*
X16201Y10870D01*
X16174Y10839D01*
X16152Y10803D01*
X16137Y10765D01*
X16127Y10725D01*
X16125Y10706D01*
X16365D01*
Y10946D01*
D02*
G37*
G36*
X16410D02*
Y10706D01*
X16650D01*
X16649Y10725D01*
X16639Y10765D01*
X16623Y10803D01*
X16602Y10839D01*
X16575Y10870D01*
X16543Y10897D01*
X16508Y10919D01*
X16470Y10934D01*
X16429Y10944D01*
X16410Y10946D01*
D02*
G37*
G36*
X13911D02*
Y10706D01*
X14151D01*
X14150Y10725D01*
X14140Y10765D01*
X14124Y10803D01*
X14103Y10839D01*
X14076Y10870D01*
X14044Y10897D01*
X14009Y10919D01*
X13971Y10934D01*
X13930Y10944D01*
X13911Y10946D01*
D02*
G37*
G36*
X10899D02*
Y10706D01*
X11139D01*
X11137Y10725D01*
X11127Y10765D01*
X11112Y10803D01*
X11090Y10839D01*
X11063Y10870D01*
X11031Y10897D01*
X10996Y10919D01*
X10958Y10934D01*
X10917Y10944D01*
X10899Y10946D01*
D02*
G37*
G36*
X13866D02*
X13848Y10944D01*
X13807Y10934D01*
X13769Y10919D01*
X13734Y10897D01*
X13702Y10870D01*
X13675Y10839D01*
X13653Y10803D01*
X13638Y10765D01*
X13628Y10725D01*
X13626Y10706D01*
X13866D01*
Y10946D01*
D02*
G37*
G36*
X14668Y11308D02*
X13233D01*
X13212Y11304D01*
X13194Y11292D01*
X13118Y11216D01*
X13105Y11197D01*
X13101Y11176D01*
Y9729D01*
X13082Y9714D01*
X13065Y9692D01*
X13055Y9667D01*
X13051Y9639D01*
X13055Y9612D01*
X13065Y9586D01*
X13082Y9564D01*
X13104Y9548D01*
X13130Y9537D01*
X13157Y9533D01*
X13185Y9537D01*
X13210Y9548D01*
X13232Y9564D01*
X13249Y9586D01*
X13259Y9612D01*
X13263Y9639D01*
X13259Y9667D01*
X13249Y9692D01*
X13232Y9714D01*
X13213Y9729D01*
Y11153D01*
X13257Y11196D01*
X14645D01*
X14663Y11178D01*
Y10924D01*
X14641Y10907D01*
X14623Y10883D01*
X14611Y10855D01*
X14607Y10825D01*
X14611Y10795D01*
X14623Y10767D01*
X14641Y10744D01*
X14665Y10725D01*
X14693Y10714D01*
X14723Y10710D01*
X14753Y10714D01*
X14781Y10725D01*
X14805Y10744D01*
X14823Y10767D01*
X14834Y10795D01*
X14838Y10825D01*
X14834Y10855D01*
X14823Y10883D01*
X14805Y10907D01*
X14781Y10925D01*
X14775Y10927D01*
Y11201D01*
X14771Y11223D01*
X14759Y11241D01*
X14708Y11292D01*
X14690Y11304D01*
X14668Y11308D01*
D02*
G37*
G36*
X15000Y10941D02*
X14970Y10937D01*
X14942Y10925D01*
X14918Y10907D01*
X14900Y10883D01*
X14888Y10855D01*
X14884Y10825D01*
X14888Y10795D01*
X14900Y10767D01*
X14918Y10744D01*
X14942Y10725D01*
X14970Y10714D01*
X15000Y10710D01*
X15030Y10714D01*
X15058Y10725D01*
X15082Y10744D01*
X15100Y10767D01*
X15111Y10795D01*
X15115Y10825D01*
X15111Y10855D01*
X15100Y10883D01*
X15082Y10907D01*
X15058Y10925D01*
X15030Y10937D01*
X15000Y10941D01*
D02*
G37*
G36*
X10042D02*
X10012Y10937D01*
X9984Y10925D01*
X9960Y10907D01*
X9942Y10883D01*
X9931Y10855D01*
X9927Y10825D01*
X9931Y10795D01*
X9942Y10767D01*
X9960Y10744D01*
X9984Y10725D01*
X10012Y10714D01*
X10042Y10710D01*
X10072Y10714D01*
X10100Y10725D01*
X10124Y10744D01*
X10142Y10767D01*
X10154Y10795D01*
X10158Y10825D01*
X10154Y10855D01*
X10142Y10883D01*
X10124Y10907D01*
X10100Y10925D01*
X10072Y10937D01*
X10042Y10941D01*
D02*
G37*
G36*
X9488D02*
X9458Y10937D01*
X9430Y10925D01*
X9406Y10907D01*
X9388Y10883D01*
X9377Y10855D01*
X9373Y10825D01*
X9377Y10795D01*
X9388Y10767D01*
X9406Y10744D01*
X9430Y10725D01*
X9458Y10714D01*
X9488Y10710D01*
X9518Y10714D01*
X9546Y10725D01*
X9570Y10744D01*
X9588Y10767D01*
X9600Y10795D01*
X9604Y10825D01*
X9600Y10855D01*
X9588Y10883D01*
X9570Y10907D01*
X9546Y10925D01*
X9518Y10937D01*
X9488Y10941D01*
D02*
G37*
G36*
X9765D02*
X9735Y10937D01*
X9707Y10925D01*
X9683Y10907D01*
X9665Y10883D01*
X9654Y10855D01*
X9650Y10825D01*
X9654Y10795D01*
X9665Y10767D01*
X9683Y10744D01*
X9707Y10725D01*
X9735Y10714D01*
X9765Y10710D01*
X9795Y10714D01*
X9823Y10725D01*
X9847Y10744D01*
X9865Y10767D01*
X9877Y10795D01*
X9881Y10825D01*
X9877Y10855D01*
X9865Y10883D01*
X9847Y10907D01*
X9823Y10925D01*
X9795Y10937D01*
X9765Y10941D01*
D02*
G37*
G36*
X17097Y9750D02*
X17093Y9750D01*
X17069Y9740D01*
X17048Y9724D01*
X17032Y9703D01*
X17022Y9678D01*
X17021Y9675D01*
X17097D01*
Y9750D01*
D02*
G37*
G36*
X17142D02*
Y9675D01*
X17218D01*
X17217Y9678D01*
X17207Y9703D01*
X17191Y9724D01*
X17170Y9740D01*
X17146Y9750D01*
X17142Y9750D01*
D02*
G37*
G36*
X13462Y11193D02*
X13435Y11189D01*
X13409Y11179D01*
X13387Y11162D01*
X13370Y11140D01*
X13360Y11115D01*
X13356Y11087D01*
X13360Y11060D01*
X13370Y11034D01*
X13387Y11012D01*
X13409Y10995D01*
X13435Y10985D01*
X13462Y10981D01*
X13489Y10985D01*
X13515Y10995D01*
X13537Y11012D01*
X13540Y11016D01*
X14258D01*
X14331Y10944D01*
Y10617D01*
X14331Y10617D01*
X14331D01*
X14334Y10599D01*
X14341Y10582D01*
X14352Y10567D01*
X14428Y10491D01*
X14442Y10480D01*
X14460Y10473D01*
X14478Y10471D01*
X14494D01*
X14503Y10460D01*
X14514Y10451D01*
Y10384D01*
X14514Y10384D01*
X14514D01*
X14516Y10366D01*
X14523Y10348D01*
X14534Y10334D01*
X14580Y10288D01*
X14580Y10288D01*
X14580D01*
X14580Y10288D01*
X14580D01*
X14580Y10288D01*
Y10288D01*
Y10288D01*
D01*
D01*
X14580D01*
Y10288D01*
X14595Y10277D01*
X14607Y10272D01*
X14612Y10270D01*
X14630Y10267D01*
X15503D01*
X15588Y10182D01*
Y9833D01*
X15554D01*
Y9632D01*
X15453D01*
X15453Y9634D01*
X15458Y9636D01*
X15480Y9653D01*
X15497Y9675D01*
X15507Y9701D01*
X15511Y9728D01*
X15507Y9756D01*
X15497Y9781D01*
X15480Y9803D01*
X15458Y9820D01*
X15433Y9830D01*
X15405Y9834D01*
X15378Y9830D01*
X15352Y9820D01*
X15330Y9803D01*
X15313Y9781D01*
X15303Y9756D01*
X15299Y9728D01*
X15303Y9701D01*
X15313Y9675D01*
X15330Y9653D01*
X15352Y9636D01*
X15377Y9626D01*
X15378Y9624D01*
X15365Y9615D01*
X15340Y9590D01*
X15328Y9572D01*
X15324Y9550D01*
Y9463D01*
X15323Y9462D01*
X15319Y9439D01*
Y9279D01*
X15323Y9255D01*
X15336Y9235D01*
X15356Y9222D01*
X15380Y9217D01*
X15403Y9222D01*
X15423Y9235D01*
X15436Y9255D01*
X15441Y9279D01*
Y9439D01*
X15436Y9462D01*
X15436Y9463D01*
Y9520D01*
X15634D01*
X15655Y9524D01*
X15673Y9536D01*
X15673Y9536D01*
X15673Y9536D01*
X15699Y9562D01*
X15699Y9562D01*
X15699Y9562D01*
X15711Y9580D01*
X15715Y9601D01*
Y9623D01*
X15764D01*
Y9833D01*
X15730D01*
Y10211D01*
X15727Y10229D01*
X15720Y10246D01*
X15709Y10261D01*
X15582Y10388D01*
X15567Y10399D01*
X15550Y10406D01*
X15532Y10408D01*
X14660D01*
X14655Y10413D01*
Y10451D01*
X14666Y10460D01*
X14684Y10483D01*
X14696Y10511D01*
X14700Y10541D01*
X14696Y10571D01*
X14684Y10599D01*
X14666Y10623D01*
X14642Y10641D01*
X14614Y10653D01*
X14584Y10657D01*
X14555Y10653D01*
X14527Y10641D01*
X14503Y10623D01*
X14501Y10621D01*
X14498Y10620D01*
X14472Y10646D01*
Y10973D01*
X14470Y10991D01*
X14463Y11008D01*
X14452Y11023D01*
X14337Y11137D01*
X14323Y11148D01*
X14306Y11155D01*
X14288Y11158D01*
X13540D01*
X13537Y11162D01*
X13515Y11179D01*
X13489Y11189D01*
X13462Y11193D01*
D02*
G37*
G36*
X17218Y9629D02*
X17142D01*
Y9554D01*
X17146Y9554D01*
X17170Y9564D01*
X17191Y9580D01*
X17207Y9601D01*
X17217Y9626D01*
X17218Y9629D01*
D02*
G37*
G36*
X9766Y9809D02*
X9739Y9805D01*
X9713Y9795D01*
X9691Y9778D01*
X9675Y9756D01*
X9664Y9730D01*
X9660Y9703D01*
X9664Y9675D01*
X9675Y9650D01*
X9691Y9628D01*
X9713Y9611D01*
X9739Y9601D01*
X9766Y9597D01*
X9794Y9601D01*
X9819Y9611D01*
X9841Y9628D01*
X9858Y9650D01*
X9869Y9675D01*
X9872Y9703D01*
X9869Y9730D01*
X9858Y9756D01*
X9841Y9778D01*
X9819Y9795D01*
X9794Y9805D01*
X9766Y9809D01*
D02*
G37*
G36*
X12976Y9922D02*
X12900D01*
Y9846D01*
X12904Y9846D01*
X12928Y9856D01*
X12949Y9872D01*
X12965Y9893D01*
X12976Y9918D01*
X12976Y9922D01*
D02*
G37*
G36*
X12622Y10049D02*
X12564D01*
Y9916D01*
X12622D01*
Y10049D01*
D02*
G37*
G36*
X12855Y9922D02*
X12779D01*
X12780Y9918D01*
X12790Y9893D01*
X12806Y9872D01*
X12827Y9856D01*
X12852Y9846D01*
X12855Y9846D01*
Y9922D01*
D02*
G37*
G36*
X12622Y9871D02*
X12564D01*
Y9738D01*
X12622D01*
Y9871D01*
D02*
G37*
G36*
X12725D02*
X12667D01*
Y9738D01*
X12725D01*
Y9871D01*
D02*
G37*
G36*
X11879Y9505D02*
X11821D01*
X11800Y9501D01*
X11781Y9489D01*
X11770Y9471D01*
X11879D01*
Y9505D01*
D02*
G37*
G36*
X11981D02*
X11924D01*
Y9471D01*
X12033D01*
X12021Y9489D01*
X12003Y9501D01*
X11981Y9505D01*
D02*
G37*
G36*
X15126Y9500D02*
X15102Y9495D01*
X15082Y9482D01*
X15069Y9462D01*
X15065Y9439D01*
Y9416D01*
X14994D01*
Y9440D01*
X14674D01*
Y9270D01*
X14994D01*
Y9304D01*
X15065D01*
Y9279D01*
X15069Y9255D01*
X15082Y9235D01*
X15102Y9222D01*
X15126Y9217D01*
X15149Y9222D01*
X15169Y9235D01*
X15182Y9255D01*
X15187Y9279D01*
Y9439D01*
X15182Y9462D01*
X15169Y9482D01*
X15149Y9495D01*
X15126Y9500D01*
D02*
G37*
G36*
X12033Y9426D02*
X11770D01*
X11781Y9409D01*
X11800Y9397D01*
X11821Y9392D01*
X11981D01*
X12003Y9397D01*
X12021Y9409D01*
X12033Y9426D01*
D02*
G37*
G36*
X12513D02*
X12250D01*
X12261Y9409D01*
X12280Y9397D01*
X12301Y9392D01*
X12461D01*
X12483Y9397D01*
X12501Y9409D01*
X12513Y9426D01*
D02*
G37*
G36*
X11608Y9682D02*
X11580Y9678D01*
X11555Y9668D01*
X11533Y9651D01*
X11516Y9629D01*
X11506Y9603D01*
X11502Y9576D01*
X11506Y9548D01*
X11516Y9523D01*
X11533Y9501D01*
X11555Y9484D01*
X11580Y9474D01*
X11608Y9470D01*
X11635Y9474D01*
X11661Y9484D01*
X11683Y9501D01*
X11697Y9520D01*
X11797D01*
X11798Y9519D01*
X11821Y9515D01*
X11981D01*
X12005Y9519D01*
X12024Y9533D01*
X12038Y9552D01*
X12042Y9576D01*
X12038Y9599D01*
X12024Y9619D01*
X12005Y9632D01*
X11981Y9637D01*
X11821D01*
X11798Y9632D01*
X11797Y9632D01*
X11697D01*
X11683Y9651D01*
X11661Y9668D01*
X11635Y9678D01*
X11608Y9682D01*
D02*
G37*
G36*
X17097Y9629D02*
X17021D01*
X17022Y9626D01*
X17032Y9601D01*
X17048Y9580D01*
X17069Y9564D01*
X17093Y9554D01*
X17097Y9554D01*
Y9629D01*
D02*
G37*
G36*
X9073Y10657D02*
X9043Y10653D01*
X9015Y10641D01*
X8991Y10623D01*
X8973Y10599D01*
X8961Y10571D01*
X8957Y10541D01*
X8961Y10511D01*
X8973Y10483D01*
X8991Y10460D01*
X9015Y10441D01*
X9017Y10440D01*
Y10295D01*
X9021Y10273D01*
X9033Y10255D01*
X9033Y10255D01*
X9033Y10255D01*
X9142Y10146D01*
X9142Y10146D01*
X9142D01*
X9142Y10146D01*
X9142D01*
X9142Y10146D01*
Y10146D01*
Y10146D01*
D01*
D01*
X9142D01*
Y10146D01*
X9161Y10134D01*
X9182Y10129D01*
X9908D01*
X9964Y10073D01*
Y9808D01*
X9915D01*
Y9598D01*
X9964D01*
Y9568D01*
X9792D01*
X9770Y9564D01*
X9752Y9552D01*
X9714Y9514D01*
X9702Y9496D01*
X9698Y9474D01*
Y9399D01*
X9697Y9399D01*
X9692Y9375D01*
Y9215D01*
X9697Y9192D01*
X9710Y9172D01*
X9730Y9159D01*
X9754Y9154D01*
X9777Y9159D01*
X9797Y9172D01*
X9810Y9192D01*
X9815Y9215D01*
Y9375D01*
X9810Y9399D01*
X9810Y9399D01*
Y9451D01*
X9815Y9456D01*
X9995D01*
X10016Y9460D01*
X10035Y9473D01*
X10035Y9473D01*
X10035Y9473D01*
X10060Y9498D01*
X10060Y9498D01*
X10060Y9498D01*
X10072Y9516D01*
X10076Y9538D01*
Y9598D01*
X10125D01*
Y9808D01*
X10076D01*
Y10096D01*
X10072Y10118D01*
X10060Y10136D01*
X9971Y10225D01*
X9953Y10237D01*
X9931Y10241D01*
X9205D01*
X9129Y10318D01*
Y10440D01*
X9130Y10441D01*
X9154Y10460D01*
X9173Y10483D01*
X9184Y10511D01*
X9188Y10541D01*
X9184Y10571D01*
X9173Y10599D01*
X9154Y10623D01*
X9130Y10641D01*
X9102Y10653D01*
X9073Y10657D01*
D02*
G37*
G36*
X12359Y9505D02*
X12301D01*
X12280Y9501D01*
X12261Y9489D01*
X12250Y9471D01*
X12359D01*
Y9505D01*
D02*
G37*
G36*
X12461D02*
X12404D01*
Y9471D01*
X12513D01*
X12501Y9489D01*
X12483Y9501D01*
X12461Y9505D01*
D02*
G37*
G36*
X12725Y10049D02*
X12667D01*
Y9916D01*
X12725D01*
Y10049D01*
D02*
G37*
G36*
X8182Y10131D02*
X8178Y10131D01*
X8154Y10121D01*
X8133Y10105D01*
X8117Y10084D01*
X8106Y10059D01*
X8106Y10056D01*
X8182D01*
Y10131D01*
D02*
G37*
G36*
X8227D02*
Y10056D01*
X8303D01*
X8302Y10059D01*
X8292Y10084D01*
X8276Y10105D01*
X8255Y10121D01*
X8230Y10131D01*
X8227Y10131D01*
D02*
G37*
G36*
X11173Y10119D02*
Y10043D01*
X11249D01*
X11248Y10047D01*
X11238Y10071D01*
X11222Y10092D01*
X11201Y10108D01*
X11177Y10118D01*
X11173Y10119D01*
D02*
G37*
G36*
X16786Y10061D02*
X16710D01*
Y9985D01*
X16714Y9986D01*
X16738Y9996D01*
X16759Y10012D01*
X16775Y10033D01*
X16786Y10058D01*
X16786Y10061D01*
D02*
G37*
G36*
X11128Y10119D02*
X11124Y10118D01*
X11100Y10108D01*
X11079Y10092D01*
X11063Y10071D01*
X11053Y10047D01*
X11052Y10043D01*
X11128D01*
Y10119D01*
D02*
G37*
G36*
X16710Y10182D02*
Y10106D01*
X16786D01*
X16786Y10110D01*
X16775Y10134D01*
X16759Y10155D01*
X16738Y10171D01*
X16714Y10182D01*
X16710Y10182D01*
D02*
G37*
G36*
X12598Y10355D02*
X12571Y10351D01*
X12545Y10341D01*
X12524Y10324D01*
X12507Y10302D01*
X12496Y10276D01*
X12492Y10249D01*
X12496Y10221D01*
X12507Y10196D01*
X12524Y10174D01*
X12545Y10157D01*
X12571Y10147D01*
X12598Y10143D01*
X12626Y10147D01*
X12651Y10157D01*
X12673Y10174D01*
X12690Y10196D01*
X12701Y10221D01*
X12704Y10249D01*
X12701Y10276D01*
X12690Y10302D01*
X12673Y10324D01*
X12651Y10341D01*
X12626Y10351D01*
X12598Y10355D01*
D02*
G37*
G36*
X16665Y10182D02*
X16662Y10182D01*
X16637Y10171D01*
X16616Y10155D01*
X16600Y10134D01*
X16590Y10110D01*
X16589Y10106D01*
X16665D01*
Y10182D01*
D02*
G37*
G36*
X13922D02*
X13918Y10182D01*
X13894Y10171D01*
X13873Y10155D01*
X13857Y10134D01*
X13847Y10110D01*
X13846Y10106D01*
X13922D01*
Y10182D01*
D02*
G37*
G36*
X13967D02*
Y10106D01*
X14043D01*
X14042Y10110D01*
X14032Y10134D01*
X14016Y10155D01*
X13995Y10171D01*
X13971Y10182D01*
X13967Y10182D01*
D02*
G37*
G36*
X8303Y10011D02*
X8227D01*
Y9935D01*
X8230Y9935D01*
X8255Y9945D01*
X8276Y9961D01*
X8292Y9982D01*
X8302Y10007D01*
X8303Y10011D01*
D02*
G37*
G36*
X12460Y10053D02*
X12289D01*
Y9937D01*
X12237D01*
X12231Y9945D01*
X12212Y9959D01*
X12190Y9968D01*
X12167Y9971D01*
X12143Y9968D01*
X12121Y9959D01*
X12102Y9945D01*
X12088Y9926D01*
X12079Y9904D01*
X12076Y9881D01*
X12079Y9857D01*
X12088Y9835D01*
X12102Y9816D01*
X12121Y9802D01*
X12143Y9793D01*
X12167Y9790D01*
X12190Y9793D01*
X12212Y9802D01*
X12231Y9816D01*
X12237Y9825D01*
X12289D01*
Y9733D01*
X12325D01*
Y9637D01*
X12301D01*
X12278Y9632D01*
X12258Y9619D01*
X12245Y9599D01*
X12240Y9576D01*
X12245Y9552D01*
X12258Y9533D01*
X12278Y9519D01*
X12301Y9515D01*
X12461D01*
X12485Y9519D01*
X12485Y9520D01*
X12624D01*
X12645Y9524D01*
X12663Y9536D01*
X12663Y9536D01*
X12663Y9536D01*
X12711Y9583D01*
X12798D01*
Y9534D01*
X13008D01*
Y9744D01*
X12798D01*
Y9695D01*
X12687D01*
X12666Y9691D01*
X12648Y9679D01*
X12601Y9632D01*
X12485D01*
X12485Y9632D01*
X12461Y9637D01*
X12437D01*
Y9733D01*
X12460D01*
Y10053D01*
D02*
G37*
G36*
X8182Y10011D02*
X8106D01*
X8106Y10007D01*
X8117Y9982D01*
X8133Y9961D01*
X8154Y9945D01*
X8178Y9935D01*
X8182Y9935D01*
Y10011D01*
D02*
G37*
G36*
X11128Y9998D02*
X11052D01*
X11053Y9994D01*
X11063Y9970D01*
X11079Y9949D01*
X11100Y9933D01*
X11124Y9922D01*
X11128Y9922D01*
Y9998D01*
D02*
G37*
G36*
X11249D02*
X11173D01*
Y9922D01*
X11177Y9922D01*
X11201Y9933D01*
X11222Y9949D01*
X11238Y9970D01*
X11248Y9994D01*
X11249Y9998D01*
D02*
G37*
G36*
X14043Y10061D02*
X13967D01*
Y9985D01*
X13971Y9986D01*
X13995Y9996D01*
X14016Y10012D01*
X14032Y10033D01*
X14042Y10058D01*
X14043Y10061D01*
D02*
G37*
G36*
X16665D02*
X16589D01*
X16590Y10058D01*
X16600Y10033D01*
X16616Y10012D01*
X16637Y9996D01*
X16662Y9986D01*
X16665Y9985D01*
Y10061D01*
D02*
G37*
G36*
X13922D02*
X13846D01*
X13847Y10058D01*
X13857Y10033D01*
X13873Y10012D01*
X13894Y9996D01*
X13918Y9986D01*
X13922Y9985D01*
Y10061D01*
D02*
G37*
G36*
X12855Y10042D02*
X12852Y10042D01*
X12827Y10032D01*
X12806Y10016D01*
X12790Y9995D01*
X12780Y9970D01*
X12779Y9967D01*
X12855D01*
Y10042D01*
D02*
G37*
G36*
X12900D02*
Y9967D01*
X12976D01*
X12976Y9970D01*
X12965Y9995D01*
X12949Y10016D01*
X12928Y10032D01*
X12904Y10042D01*
X12900Y10042D01*
D02*
G37*
%LPD*%
D10*
X12375Y9893D02*
D03*
X12644D02*
D03*
D11*
X14834Y9085D02*
D03*
Y9355D02*
D03*
X9182Y9292D02*
D03*
Y9022D02*
D03*
D12*
X9500Y8815D02*
D03*
X9627D02*
D03*
X9754D02*
D03*
X9881D02*
D03*
X9500Y9295D02*
D03*
X9627D02*
D03*
X9754D02*
D03*
X9881D02*
D03*
X15507Y9359D02*
D03*
X15380D02*
D03*
X15253D02*
D03*
X15126D02*
D03*
X15507Y8879D02*
D03*
X15380D02*
D03*
X15253D02*
D03*
X15126D02*
D03*
D13*
X12381Y9195D02*
D03*
Y9322D02*
D03*
Y9449D02*
D03*
Y9576D02*
D03*
X11901Y9195D02*
D03*
Y9322D02*
D03*
Y9449D02*
D03*
Y9576D02*
D03*
D14*
X11824Y8052D02*
Y8306D01*
X11570Y8052D02*
Y8306D01*
X12687Y9639D02*
X12903D01*
X12624Y9576D02*
X12687Y9639D01*
X12381Y9576D02*
X12624D01*
X12381D02*
Y9869D01*
X9169Y9296D02*
X9500Y9295D01*
X14719Y10829D02*
X14723Y10825D01*
X14719Y10829D02*
Y11201D01*
X9073Y10295D02*
Y10541D01*
Y10295D02*
X9182Y10185D01*
X9931D01*
X10020Y10096D01*
Y9703D02*
Y10096D01*
X9284Y11278D02*
X9398D01*
X9207Y11201D02*
X9284Y11278D01*
X15685Y8560D02*
X16675D01*
X15507Y8738D02*
X15685Y8560D01*
X15507Y8738D02*
Y8879D01*
X16675Y8560D02*
X16764Y8471D01*
X16726Y7874D02*
X16764Y7912D01*
X15672Y7874D02*
X16726D01*
X15634Y7912D02*
X15672Y7874D01*
X15634Y7912D02*
Y8052D01*
X16764Y7912D02*
Y8471D01*
X14821Y7823D02*
X14872Y7874D01*
X9677Y7823D02*
X14821D01*
X9500Y8001D02*
X9677Y7823D01*
X14567Y7912D02*
X14618Y7963D01*
X10046Y7912D02*
X14567D01*
X9881Y8077D02*
X10046Y7912D01*
X14872Y7874D02*
Y8052D01*
X9627Y10452D02*
Y10528D01*
Y10452D02*
X9690Y10389D01*
X11354D01*
X13157Y9639D02*
Y11176D01*
X9504Y9660D02*
X9627Y9538D01*
Y9295D02*
Y9538D01*
X10020D02*
Y9703D01*
X9995Y9512D02*
X10020Y9538D01*
X9792Y9512D02*
X9995D01*
X9754Y9474D02*
X9792Y9512D01*
X9754Y9295D02*
Y9474D01*
X14834Y9360D02*
X15124D01*
X15126Y9359D01*
X15113Y9665D02*
Y9728D01*
Y9665D02*
X15253Y9525D01*
Y9359D02*
Y9525D01*
X15659Y9601D02*
Y9728D01*
X15634Y9576D02*
X15659Y9601D01*
X15405Y9576D02*
X15634D01*
X15380Y9550D02*
X15405Y9576D01*
X15380Y9359D02*
Y9550D01*
X11608Y9576D02*
X11901D01*
X9728Y8534D02*
X9754Y8560D01*
Y8815D01*
X15367Y8611D02*
X15380Y8623D01*
Y8879D01*
X9500Y8001D02*
Y8815D01*
X9881Y8077D02*
Y8815D01*
X14618Y7963D02*
Y8052D01*
X12878Y9665D02*
X12903Y9639D01*
X8920Y10825D02*
X9207D01*
Y11201D01*
X8814Y10719D02*
X8920Y10825D01*
X8268Y9525D02*
X8687D01*
X8814Y9652D01*
Y10719D01*
X12167Y9881D02*
X12344D01*
X12357Y9893D01*
X12381Y9869D01*
X10181Y10541D02*
X10389Y10749D01*
Y11227D01*
X10582Y11420D01*
X11595D01*
X10871Y9385D02*
X11125D01*
X11595Y9855D01*
Y11420D01*
X15618D01*
X15710Y10567D02*
X15735Y10541D01*
X15710Y10567D02*
Y11328D01*
X15618Y11420D02*
X15710Y11328D01*
X13157Y11176D02*
X13233Y11252D01*
X14668D01*
X14719Y11201D01*
D15*
X14478Y10541D02*
X14584D01*
X14402Y10617D02*
X14478Y10541D01*
X14402Y10617D02*
Y10973D01*
X14288Y11087D02*
X14402Y10973D01*
X13462Y11087D02*
X14288D01*
X14584Y10384D02*
Y10541D01*
Y10384D02*
X14630Y10338D01*
X15532D01*
X15659Y10211D01*
Y9728D02*
Y10211D01*
D16*
X15126Y8725D02*
Y8879D01*
X15024Y8623D02*
X15126Y8725D01*
X12306Y8623D02*
X15024D01*
X12205Y8522D02*
X12306Y8623D01*
X12205Y8179D02*
Y8522D01*
X12078Y8052D02*
X12205Y8179D01*
D17*
X12598Y11163D02*
D03*
X12344Y10249D02*
D03*
X12598Y10858D02*
D03*
Y10554D02*
D03*
X11570Y8052D02*
D03*
X12903Y9296D02*
D03*
X15659Y9728D02*
D03*
X12903Y9639D02*
D03*
X10020Y9703D02*
D03*
D18*
X12344Y11163D02*
D03*
X12598Y10249D02*
D03*
X12344Y10858D02*
D03*
Y10554D02*
D03*
X16396Y8306D02*
D03*
Y8052D02*
D03*
X16142Y8306D02*
D03*
Y8052D02*
D03*
X15888Y8306D02*
D03*
Y8052D02*
D03*
X15634Y8306D02*
D03*
Y8052D02*
D03*
X15380Y8306D02*
D03*
Y8052D02*
D03*
X15126Y8306D02*
D03*
Y8052D02*
D03*
X14872Y8306D02*
D03*
Y8052D02*
D03*
X14618Y8306D02*
D03*
Y8052D02*
D03*
X14364Y8306D02*
D03*
Y8052D02*
D03*
X14110Y8306D02*
D03*
Y8052D02*
D03*
X13856Y8306D02*
D03*
Y8052D02*
D03*
X13602Y8306D02*
D03*
Y8052D02*
D03*
X13348Y8306D02*
D03*
Y8052D02*
D03*
X13094Y8306D02*
D03*
Y8052D02*
D03*
X12840Y8306D02*
D03*
Y8052D02*
D03*
X12586Y8306D02*
D03*
Y8052D02*
D03*
X12332Y8306D02*
D03*
Y8052D02*
D03*
X12078Y8306D02*
D03*
Y8052D02*
D03*
X11824Y8306D02*
D03*
Y8052D02*
D03*
X11570Y8306D02*
D03*
X13157Y9296D02*
D03*
X15405Y9728D02*
D03*
X13157Y9639D02*
D03*
X9766Y9703D02*
D03*
X10871Y9385D02*
D03*
X8928Y8306D02*
D03*
X17120Y9652D02*
D03*
X17132Y10998D02*
D03*
X16383Y8725D02*
D03*
X11913Y8598D02*
D03*
X12878Y9944D02*
D03*
X13945Y10084D02*
D03*
X16688D02*
D03*
X8204Y10033D02*
D03*
X11151Y10020D02*
D03*
X11354Y10389D02*
D03*
X13462Y11087D02*
D03*
X15113Y9728D02*
D03*
X11608Y9576D02*
D03*
X9728Y8534D02*
D03*
X15367Y8611D02*
D03*
X9504Y9660D02*
D03*
D19*
X13889Y10683D02*
D03*
X16388D02*
D03*
X10876D02*
D03*
X8377D02*
D03*
D20*
X15692Y10541D02*
D03*
X10181D02*
D03*
D21*
X15554Y10825D02*
D03*
X15415Y10541D02*
D03*
X15277Y10825D02*
D03*
X15138Y10541D02*
D03*
X15000Y10825D02*
D03*
X14861Y10541D02*
D03*
X14723Y10825D02*
D03*
X14584Y10541D02*
D03*
X9073D02*
D03*
X9211Y10825D02*
D03*
X9350Y10541D02*
D03*
X9488Y10825D02*
D03*
X9627Y10541D02*
D03*
X9765Y10825D02*
D03*
X9904Y10541D02*
D03*
X10042Y10825D02*
D03*
D22*
X10871Y9131D02*
D03*
D23*
X8268Y9017D02*
D03*
Y9525D02*
D03*
D24*
X9398Y11278D02*
D03*
X12167Y9881D02*
D03*
D25*
X17247Y8179D02*
D03*
X8344Y8217D02*
D03*
D26*
X11367Y16193D02*
D03*
M02*
